\relax 
\@writefile{toc}{\contentsline {section}{\numberline {1}Introduction}{1}}
\@writefile{toc}{\contentsline {section}{\numberline {2}Download}{2}}
\@writefile{toc}{\contentsline {section}{\numberline {3}Usage}{2}}
\@writefile{lol}{\contentsline {lstlisting}{\numberline {1}Example of inputfile.py}{2}}
\@writefile{toc}{\contentsline {section}{\numberline {4}Options}{6}}
\@writefile{toc}{\contentsline {subsection}{\numberline {4.1}- -options}{7}}
\@writefile{toc}{\contentsline {subsection}{\numberline {4.2}- -NotRecreate}{7}}
\@writefile{toc}{\contentsline {subsection}{\numberline {4.3}- -MakeROC}{7}}
\@writefile{toc}{\contentsline {subsection}{\numberline {4.4}- -CompareTrainAndTest}{8}}
\@writefile{toc}{\contentsline {subsection}{\numberline {4.5}- -StandardizeData}{8}}
\bibcite{ROOT}{1}
\bibcite{Scikitlearn}{2}
\@writefile{toc}{\contentsline {subsection}{\numberline {4.6}- -MakePlots}{9}}
\@writefile{toc}{\contentsline {section}{\numberline {5}Conclusion}{9}}
\@writefile{toc}{\contentsline {section}{\numberline {6}Acknowledgements}{9}}
\@writefile{toc}{\contentsline {section}{\numberline {7}References}{9}}
