\relax 
\@writefile{toc}{\contentsline {section}{\numberline {1}Introduction}{1}}
\@writefile{toc}{\contentsline {section}{\numberline {2}Download}{2}}
\@writefile{toc}{\contentsline {section}{\numberline {3}Usage}{2}}
\@writefile{lol}{\contentsline {lstlisting}{\numberline {1}Example of inputfile.py}{3}}
\@writefile{lof}{\contentsline {figure}{\numberline {1}{\ignorespaces }}{6}}
\newlabel{eff-output}{{1}{6}}
\@writefile{toc}{\contentsline {section}{\numberline {4}Options}{7}}
\@writefile{toc}{\contentsline {subsection}{\numberline {4.1}- -options}{7}}
\@writefile{toc}{\contentsline {subsection}{\numberline {4.2}- -NotRecreate}{8}}
\@writefile{toc}{\contentsline {subsection}{\numberline {4.3}- -MakeROC}{8}}
\@writefile{lof}{\contentsline {figure}{\numberline {2}{\ignorespaces Example of ROC curve created using the \texttt  {MakeROC} option}}{8}}
\@writefile{toc}{\contentsline {subsection}{\numberline {4.4}- -CompareTrainTest}{9}}
\@writefile{lof}{\contentsline {figure}{\numberline {3}{\ignorespaces Example of Overtraining check plot produced using the \texttt  {--CompareTrainTest} option}}{9}}
\@writefile{toc}{\contentsline {subsection}{\numberline {4.5}- -StandardizeData}{9}}
\@writefile{toc}{\contentsline {subsection}{\numberline {4.6}- -MakePlots}{9}}
\@writefile{lof}{\contentsline {figure}{\numberline {4}{\ignorespaces Example of plot produced enabling the \texttt  {--ComparePerformances} option}}{10}}
\newlabel{fig_compare_mvas}{{4}{10}}
\@writefile{toc}{\contentsline {subsection}{\numberline {4.7}- -ComparePerformances}{10}}
\@writefile{toc}{\contentsline {subsection}{\numberline {4.8}- -CorrelationMatrix}{10}}
\newlabel{eq_correlation}{{3}{10}}
\citation{Scikitlearn}
\bibcite{ROOT}{1}
\bibcite{Scikitlearn}{2}
\@writefile{lof}{\contentsline {figure}{\numberline {5}{\ignorespaces Example of plot produced enabling the \texttt  {--CorrelationMatrix} option}}{11}}
\newlabel{fig_correlation}{{5}{11}}
\@writefile{toc}{\contentsline {section}{\numberline {5}Conclusions}{11}}
\@writefile{toc}{\contentsline {section}{\numberline {6}Acknowledgements}{11}}
\@writefile{toc}{\contentsline {section}{\numberline {7}References}{11}}
